<svg width="96" height="96" viewBox="0 0 96 96" fill="none" xmlns="http://www.w3.org/2000/svg">
<circle opacity="0.05" cx="48" cy="48" r="48" fill="#ED395A"/>
<circle opacity="0.1" cx="48" cy="48" r="36" fill="#ED395A"/>
<circle cx="48" cy="48" r="24" fill="#ED395A"/>
<path fill-rule="evenodd" clip-rule="evenodd" d="M45.498 61.8365C46.0251 62.9381 47.1962 63.7498 48.543 63.7498C50.4168 63.7498 51.9393 62.2424 51.9393 60.3871C51.9393 60.3871 51.9393 60.3871 51.9393 60.3291C51.6465 60.4451 51.5294 60.503 51.5294 60.503C51.5294 60.503 48.6601 61.3147 45.498 61.8365Z" fill="white"/>
<path fill-rule="evenodd" clip-rule="evenodd" d="M41.3404 35.109C41.2818 34.9351 41.2818 34.7611 41.2818 34.5872C41.2818 33.4277 42.2188 32.5 43.3899 32.5C44.3268 32.5 45.0881 33.0798 45.3808 33.8915C50.5339 33.3697 55.5112 36.5585 57.0337 41.6606L57.5607 43.4579C58.0878 45.2552 59.0247 46.9366 60.2544 48.386L62.2453 50.7631C62.3624 50.8791 62.4795 50.9951 62.5966 51.111C62.6552 51.169 62.6552 51.169 62.7138 51.227C62.8309 51.3429 62.8894 51.4589 62.948 51.5748C64.002 54.9376 51.0023 59.3439 51.0023 59.3439C51.0023 59.3439 38.2369 63.0545 37.1828 59.7498C37.1243 59.6338 37.1243 59.4599 37.1828 59.3439C37.2414 59.112 37.3 58.9381 37.3 58.7062L37.5342 55.6333C37.7099 53.778 37.4171 51.8647 36.8315 50.1254L36.1874 48.386C34.255 43.168 36.5973 37.6021 41.3404 35.109Z" fill="white"/>
</svg>
