<svg width="96" height="96" viewBox="0 0 96 96" fill="none" xmlns="http://www.w3.org/2000/svg">
<circle opacity="0.05" cx="48" cy="48" r="48" fill="#23CC52"/>
<circle opacity="0.1" cx="48" cy="48" r="36" fill="#23CC52"/>
<path d="M47.4297 72.3359C34.1641 72.3359 23.1953 61.3672 23.1953 48.1016C23.1953 34.8125 34.1406 23.8438 47.4062 23.8438C60.6953 23.8438 71.6875 34.8125 71.6875 48.1016C71.6875 61.3672 60.7188 72.3359 47.4297 72.3359ZM44.2422 60.3359C45.1328 60.3359 45.8828 59.9141 46.4453 59.0703L58.3516 40.5547C58.6797 40.0391 58.9609 39.4531 58.9609 38.8906C58.9609 37.6484 57.8359 36.8281 56.6641 36.8281C55.9375 36.8281 55.2578 37.2266 54.7422 38.0703L44.1719 54.9453L38.6875 48.0312C38.1016 47.3281 37.4922 47.0234 36.7656 47.0234C35.5703 47.0234 34.5859 47.9844 34.5859 49.25C34.5859 49.8125 34.7969 50.3984 35.2188 50.9141L41.9688 59.1406C42.6484 59.9375 43.3516 60.3359 44.2422 60.3359Z" fill="#23CC52"/>
</svg>
